Gov 50 Final Project
…
My data is derived from the World Bank. My sample is made up of all the countries the World Bank measures, including some territories (total: 217). The independent variable is GDP per capita, PPP (current international $). This is measured by using the gross domestic product (GDP) expressed in current international dollars converted by purchasing power parity (PPP) conversion factor. The dependent variable is carbon emissions which we will assume rise as a result of higher GDP. This dependent variable is measures by carbon dioxide emissions (metric tons per capita), which is seen through emissions which are stemming from the burning of fossil fuels and the manufacture of cement. They include carbon dioxide produced during consumption of solid, liquid, and gas fuels and gas flaring.

My outcome variable is the correlation relationship between this GDP and CO2 emissions. If the correlational variable is large and positive, then that means my hypothesis has been proven correct. If there seems to be no relationship between the variables (correlational coefficient is close to zero), that suggests economic growth has no effect on the emissions caused by higher production and consumption within a country. My hypothesis would also be wrong if this variable is large and negative, which implies GDP has a negative effect on emissions, and possibly that growth in GDP allows for technological growth that accounts for using more clean energy on a wider scale. I might also look into creating separate visualizations of the dataset in case analysis shows that more developed countries or that countries from a certain region have a much slower or faster slope of C02 and carbon emissions.

##Final Mileston #3
##Turn year amounts from characters into numbers

library(tidyverse)
library(ggplot2)
library(dplyr)
library(readr)
final_wb_data <- read_csv("final_wb_data.csv")
final_wb_data

# A tibble: 537 × 36
   `Country Name` `Country Code` `Series Name`         `1990 [YR1990]`
   <chr>          <chr>          <chr>                 <chr>          
 1 Afghanistan    AFG            GDP per capita, PPP … N/A            
 2 Afghanistan    AFG            CO2 emissions (metri… 0.191389345    
 3 Albania        ALB            GDP per capita, PPP … 2549.746801    
 4 Albania        ALB            CO2 emissions (metri… 1.844035463    
 5 Algeria        DZA            GDP per capita, PPP … 6974.076379    
 6 Algeria        DZA            CO2 emissions (metri… 2.466365604    
 7 American Samoa ASM            GDP per capita, PPP … N/A            
 8 American Samoa ASM            CO2 emissions (metri… N/A            
 9 Andorra        AND            GDP per capita, PPP … N/A            
10 Andorra        AND            CO2 emissions (metri… 7.592152178    
# ℹ 527 more rows
# ℹ 32 more variables: `1991 [YR1991]` <chr>, `1992 [YR1992]` <chr>,
#   `1993 [YR1993]` <chr>, `1994 [YR1994]` <chr>,
#   `1995 [YR1995]` <chr>, `1996 [YR1996]` <chr>,
#   `1997 [YR1997]` <chr>, `1998 [YR1998]` <chr>,
#   `1999 [YR1999]` <chr>, `2000 [YR2000]` <chr>,
#   `2001 [YR2001]` <chr>, `2002 [YR2002]` <chr>, …
…
ranks<- final_wb_data|>
  filter(`Series Name`== "GDP per capita, PPP (current international $)")|>
  group_by(`Country Name`)|>
  mutate(totalgdp= sum(`1990 [YR1990]`, `1991 [YR1991]`, `1992 [YR1992]`, `1993 [YR1993]`, `1994 [YR1994]`, `1995 [YR1995]`, `1996 [YR1996]`, `1997 [YR1997]`, `1998 [YR1998]`, `1999 [YR1999]`, `2000 [YR2000]`, `2001 [YR2001]`, `2002 [YR2002]`, `2003 [YR2003]`, `2004 [YR2004]`, `2005 [YR2005]`, `2006 [YR2006]`, `2007 [YR2007]`, `2008 [YR2008]`, `2009 [YR2009]`, `2010 [YR2010]`, `2011 [YR2011]`, `2012 [YR2012]`, `2013 [YR2013]`, `2014 [YR2014]`, `2015 [YR2015]`, `2016 [YR2016]`, `2017 [YR2017]`, `2018 [YR2018]`, `2019 [YR2019]`, `2020 [YR2020]`,  `2021 [YR2021]`, `2022 [YR2022]`, na.rm=TRUE))

ranks

# A tibble: 266 × 37
# Groups:   Country Name [266]
   `Country Name`      `Country Code` `Series Name`    `1990 [YR1990]`
   <chr>               <chr>          <chr>                      <dbl>
 1 Afghanistan         AFG            GDP per capita,…             NA 
 2 Albania             ALB            GDP per capita,…           2550.
 3 Algeria             DZA            GDP per capita,…           6974.
 4 American Samoa      ASM            GDP per capita,…             NA 
 5 Andorra             AND            GDP per capita,…             NA 
 6 Angola              AGO            GDP per capita,…           3283.
 7 Antigua and Barbuda ATG            GDP per capita,…          11436.
 8 Argentina           ARG            GDP per capita,…           7184.
 9 Armenia             ARM            GDP per capita,…           2757.
10 Aruba               ABW            GDP per capita,…          20754.
# ℹ 256 more rows
# ℹ 33 more variables: `1991 [YR1991]` <dbl>, `1992 [YR1992]` <dbl>,
#   `1993 [YR1993]` <dbl>, `1994 [YR1994]` <dbl>,
#   `1995 [YR1995]` <dbl>, `1996 [YR1996]` <dbl>,
#   `1997 [YR1997]` <dbl>, `1998 [YR1998]` <dbl>,
#   `1999 [YR1999]` <dbl>, `2000 [YR2000]` <dbl>,
#   `2001 [YR2001]` <dbl>, `2002 [YR2002]` <dbl>, …
…
copy <- ranks |>
  pivot_longer(cols = `1990 [YR1990]` : `2022 [YR2022]`,
               names_to = "year",
               values_to = "amount") |>
  mutate(year = as.integer(gsub("\\D", "", year)))

copy

# A tibble: 660 × 5
   `Country Name`   `Country Code` `Series Name`           year amount
   <chr>            <chr>          <chr>                  <int>  <dbl>
 1 Macao SAR, China MAC            GDP per capita, PPP … 1.99e7 26720.
 2 Macao SAR, China MAC            GDP per capita, PPP … 1.99e7 27673.
 3 Macao SAR, China MAC            GDP per capita, PPP … 1.99e7 31208.
 4 Macao SAR, China MAC            GDP per capita, PPP … 1.99e7 32869.
 5 Macao SAR, China MAC            GDP per capita, PPP … 1.99e7 34272.
 6 Macao SAR, China MAC            GDP per capita, PPP … 2.00e7 35428.
 7 Macao SAR, China MAC            GDP per capita, PPP … 2.00e7 35245.
 8 Macao SAR, China MAC            GDP per capita, PPP … 2.00e7 35109.
 9 Macao SAR, China MAC            GDP per capita, PPP … 2.00e7 33309.
10 Macao SAR, China MAC            GDP per capita, PPP … 2.00e7 32459.
# ℹ 650 more rows
…
Then, I ranked the data. I named this ‘ranks’, and so the top twenty countries were the only countries shown, and their values were included from 1990-2021. Next, I used ‘pivot longer’ to change the years from being many columns to just one column.

Finally, I turned this all into a scatterplot for the top 20 GDP countries.

##Final Milestone #4

#Only choose top 20 rank countries

CO2 <- final_wb_data |>
  group_by(`Country Name`) |>
    filter(`Country Name` == "Macao SAR, China" | `Country Name` == "Luxembourg"| `Country Name` == "Singapore"| `Country Name` == "Qatar"| `Country Name` == "Ireland"| `Country Name` == "Bermuda"| `Country Name` == "Cayman Islands"| `Country Name` == "United Arab Emirates"| `Country Name` == "Switzerland"| `Country Name` == "Norway"| `Country Name` == "United States"| `Country Name` == "Brunei Darussalam"| `Country Name` == "North America"| `Country Name` == "San Marino"| `Country Name` == "Hong Kong SAR, China"| `Country Name` == "Netherlands"| `Country Name` == "Denmark"| `Country Name` == "Austria"| `Country Name` == "Iceland"| `Country Name` == "Germany")
  CO2

# A tibble: 40 × 36
# Groups:   Country Name [20]
   `Country Name`    `Country Code` `Series Name`      `1990 [YR1990]`
   <chr>             <chr>          <chr>                        <dbl>
 1 Austria           AUT            GDP per capita, P…        19473.  
 2 Austria           AUT            CO2 emissions (me…            7.59
 3 Bermuda           BMU            GDP per capita, P…        34871.  
 4 Bermuda           BMU            CO2 emissions (me…           NA   
 5 Brunei Darussalam BRN            GDP per capita, P…        55168.  
 6 Brunei Darussalam BRN            CO2 emissions (me…           12.4 
 7 Cayman Islands    CYM            GDP per capita, P…           NA   
 8 Cayman Islands    CYM            CO2 emissions (me…           NA   
 9 Denmark           DNK            GDP per capita, P…        18244.  
10 Denmark           DNK            CO2 emissions (me…           10.1 
# ℹ 30 more rows
# ℹ 32 more variables: `1991 [YR1991]` <dbl>, `1992 [YR1992]` <dbl>,
#   `1993 [YR1993]` <dbl>, `1994 [YR1994]` <dbl>,
#   `1995 [YR1995]` <dbl>, `1996 [YR1996]` <dbl>,
#   `1997 [YR1997]` <dbl>, `1998 [YR1998]` <dbl>,
#   `1999 [YR1999]` <dbl>, `2000 [YR2000]` <dbl>,
#   `2001 [YR2001]` <dbl>, `2002 [YR2002]` <dbl>, …

#Pivot longer

copy2 <- CO2 |>
  pivot_longer(cols = `1990 [YR1990]` : `2022 [YR2022]`,
               names_to = "year",
               values_to = "amount") |>
  mutate(year = as.integer(gsub("\\D", "", year)))|>
  filter(`Series Name`== "CO2 emissions (metric tons per capita)")
copy2

# A tibble: 660 × 5
# Groups:   Country Name [20]
   `Country Name` `Country Code` `Series Name`             year amount
   <chr>          <chr>          <chr>                    <int>  <dbl>
 1 Austria        AUT            CO2 emissions (metric … 1.99e7   7.59
 2 Austria        AUT            CO2 emissions (metric … 1.99e7   8.05
 3 Austria        AUT            CO2 emissions (metric … 1.99e7   7.35
 4 Austria        AUT            CO2 emissions (metric … 1.99e7   7.31
 5 Austria        AUT            CO2 emissions (metric … 1.99e7   7.34
 6 Austria        AUT            CO2 emissions (metric … 2.00e7   7.70
 7 Austria        AUT            CO2 emissions (metric … 2.00e7   8.15
 8 Austria        AUT            CO2 emissions (metric … 2.00e7   8.06
 9 Austria        AUT            CO2 emissions (metric … 2.00e7   8.11
10 Austria        AUT            CO2 emissions (metric … 2.00e7   7.89
# ℹ 650 more rows
…
